tests/atmega8a/timer0-normal/trace.vcd
$date
	2019-05-07T14:59:16
$end
$version
	Generated by MCUSim 0.2-current
$end
$comment
	Dump of a simulated ATmega8A
$end
$timescale
	62500 ps
$end
$scope
	module ATmega8A
$end
$var reg 8 TCNT0 TCNT0 $end
$var reg 8 TCCR0 TCCR0 $end
$var reg 1 TIMSK0 TIMSK0 $end
$var reg 1 TIFR0 TIFR0 $end
$upscope $end
$enddefinitions $end
$dumpvars
b00000000 TCNT0
b00000000 TCCR0
b0 TIMSK0
b0 TIFR0
$end
#56
b1 TIMSK0
#78
b00000010 TCCR0
#85
b00000001 TCNT0
#93
b00000010 TCNT0
#101
b00000011 TCNT0
#109
b00000100 TCNT0
#117
b00000101 TCNT0
#125
b00000110 TCNT0
#133
b00000111 TCNT0
#141
b00001000 TCNT0
#149
b00001001 TCNT0
#157
b00001010 TCNT0
#165
b00001011 TCNT0
#173
b00001100 TCNT0
#181
b00001101 TCNT0
#189
b00001110 TCNT0
#197
b00001111 TCNT0
#205
b00010000 TCNT0
#213
b00010001 TCNT0
#221
b00010010 TCNT0
#229
b00010011 TCNT0
#237
b00010100 TCNT0
#245
b00010101 TCNT0
#253
b00010110 TCNT0
#261
b00010111 TCNT0
#269
b00011000 TCNT0
#277
b00011001 TCNT0
#285
b00011010 TCNT0
#293
b00011011 TCNT0
#301
b00011100 TCNT0
#309
b00011101 TCNT0
#317
b00011110 TCNT0
#325
b00011111 TCNT0
#333
b00100000 TCNT0
#341
b00100001 TCNT0
#349
b00100010 TCNT0
#357
b00100011 TCNT0
#365
b00100100 TCNT0
#373
b00100101 TCNT0
#381
b00100110 TCNT0
#389
b00100111 TCNT0
#397
b00101000 TCNT0
#405
b00101001 TCNT0
#413
b00101010 TCNT0
#421
b00101011 TCNT0
#429
b00101100 TCNT0
#437
b00101101 TCNT0
#445
b00101110 TCNT0
#453
b00101111 TCNT0
#461
b00110000 TCNT0
#469
b00110001 TCNT0
#477
b00110010 TCNT0
#485
b00110011 TCNT0
#493
b00110100 TCNT0
#501
b00110101 TCNT0
#509
b00110110 TCNT0
#517
b00110111 TCNT0
#525
b00111000 TCNT0
#533
b00111001 TCNT0
#541
b00111010 TCNT0
#549
b00111011 TCNT0
#557
b00111100 TCNT0
#565
b00111101 TCNT0
#573
b00111110 TCNT0
#581
b00111111 TCNT0
#589
b01000000 TCNT0
#597
b01000001 TCNT0
#605
b01000010 TCNT0
#613
b01000011 TCNT0
#621
b01000100 TCNT0
#629
b01000101 TCNT0
#637
b01000110 TCNT0
#645
b01000111 TCNT0
#653
b01001000 TCNT0
#661
b01001001 TCNT0
#669
b01001010 TCNT0
#677
b01001011 TCNT0
#685
b01001100 TCNT0
#693
b01001101 TCNT0
#701
b01001110 TCNT0
#709
b01001111 TCNT0
#717
b01010000 TCNT0
#725
b01010001 TCNT0
#733
b01010010 TCNT0
#741
b01010011 TCNT0
#749
b01010100 TCNT0
#757
b01010101 TCNT0
#765
b01010110 TCNT0
#773
b01010111 TCNT0
#781
b01011000 TCNT0
#789
b01011001 TCNT0
#797
b01011010 TCNT0
#805
b01011011 TCNT0
#813
b01011100 TCNT0
#821
b01011101 TCNT0
#829
b01011110 TCNT0
#837
b01011111 TCNT0
#845
b01100000 TCNT0
#853
b01100001 TCNT0
#861
b01100010 TCNT0
#869
b01100011 TCNT0
#877
b01100100 TCNT0
#885
b01100101 TCNT0
#893
b01100110 TCNT0
#901
b01100111 TCNT0
#909
b01101000 TCNT0
#917
b01101001 TCNT0
#925
b01101010 TCNT0
#933
b01101011 TCNT0
#941
b01101100 TCNT0
#949
b01101101 TCNT0
#957
b01101110 TCNT0
#965
b01101111 TCNT0
#973
b01110000 TCNT0
#981
b01110001 TCNT0
#989
b01110010 TCNT0
#997
b01110011 TCNT0
#1005
b01110100 TCNT0
#1013
b01110101 TCNT0
#1021
b01110110 TCNT0
#1029
b01110111 TCNT0
#1037
b01111000 TCNT0
#1045
b01111001 TCNT0
#1053
b01111010 TCNT0
#1061
b01111011 TCNT0
#1069
b01111100 TCNT0
#1077
b01111101 TCNT0
#1085
b01111110 TCNT0
#1093
b01111111 TCNT0
#1101
b10000000 TCNT0
#1109
b10000001 TCNT0
#1117
b10000010 TCNT0
#1125
b10000011 TCNT0
#1133
b10000100 TCNT0
#1141
b10000101 TCNT0
#1149
b10000110 TCNT0
#1157
b10000111 TCNT0
#1165
b10001000 TCNT0
#1173
b10001001 TCNT0
#1181
b10001010 TCNT0
#1189
b10001011 TCNT0
#1197
b10001100 TCNT0
#1205
b10001101 TCNT0
#1213
b10001110 TCNT0
#1221
b10001111 TCNT0
#1229
b10010000 TCNT0
#1237
b10010001 TCNT0
#1245
b10010010 TCNT0
#1253
b10010011 TCNT0
#1261
b10010100 TCNT0
#1269
b10010101 TCNT0
#1277
b10010110 TCNT0
#1285
b10010111 TCNT0
#1293
b10011000 TCNT0
#1301
b10011001 TCNT0
#1309
b10011010 TCNT0
#1317
b10011011 TCNT0
#1325
b10011100 TCNT0
#1333
b10011101 TCNT0
#1341
b10011110 TCNT0
#1349
b10011111 TCNT0
#1357
b10100000 TCNT0
#1365
b10100001 TCNT0
#1373
b10100010 TCNT0
#1381
b10100011 TCNT0
#1389
b10100100 TCNT0
#1397
b10100101 TCNT0
#1405
b10100110 TCNT0
#1413
b10100111 TCNT0
#1421
b10101000 TCNT0
#1429
b10101001 TCNT0
#1437
b10101010 TCNT0
#1445
b10101011 TCNT0
#1453
b10101100 TCNT0
#1461
b10101101 TCNT0
#1469
b10101110 TCNT0
#1477
b10101111 TCNT0
#1485
b10110000 TCNT0
#1493
b10110001 TCNT0
#1501
b10110010 TCNT0
#1509
b10110011 TCNT0
#1517
b10110100 TCNT0
#1525
b10110101 TCNT0
#1533
b10110110 TCNT0
#1541
b10110111 TCNT0
#1549
b10111000 TCNT0
#1557
b10111001 TCNT0
#1565
b10111010 TCNT0
#1573
b10111011 TCNT0
#1581
b10111100 TCNT0
#1589
b10111101 TCNT0
#1597
b10111110 TCNT0
#1605
b10111111 TCNT0
#1613
b11000000 TCNT0
#1621
b11000001 TCNT0
#1629
b11000010 TCNT0
#1637
b11000011 TCNT0
#1645
b11000100 TCNT0
#1653
b11000101 TCNT0
#1661
b11000110 TCNT0
#1669
b11000111 TCNT0
#1677
b11001000 TCNT0
#1685
b11001001 TCNT0
#1693
b11001010 TCNT0
#1701
b11001011 TCNT0
#1709
b11001100 TCNT0
#1717
b11001101 TCNT0
#1725
b11001110 TCNT0
#1733
b11001111 TCNT0
#1741
b11010000 TCNT0
#1749
b11010001 TCNT0
#1757
b11010010 TCNT0
#1765
b11010011 TCNT0
#1773
b11010100 TCNT0
#1781
b11010101 TCNT0
#1789
b11010110 TCNT0
#1797
b11010111 TCNT0
#1805
b11011000 TCNT0
#1813
b11011001 TCNT0
#1821
b11011010 TCNT0
#1829
b11011011 TCNT0
#1837
b11011100 TCNT0
#1845
b11011101 TCNT0
#1853
b11011110 TCNT0
#1861
b11011111 TCNT0
#1869
b11100000 TCNT0
#1877
b11100001 TCNT0
#1885
b11100010 TCNT0
#1893
b11100011 TCNT0
#1901
b11100100 TCNT0
#1909
b11100101 TCNT0
#1917
b11100110 TCNT0
#1925
b11100111 TCNT0
#1933
b11101000 TCNT0
#1941
b11101001 TCNT0
#1949
b11101010 TCNT0
#1957
b11101011 TCNT0
#1965
b11101100 TCNT0
#1973
b11101101 TCNT0
#1981
b11101110 TCNT0
#1989
b11101111 TCNT0
#1997
b11110000 TCNT0
#2005
b11110001 TCNT0
#2013
b11110010 TCNT0
#2021
b11110011 TCNT0
#2029
b11110100 TCNT0
#2037
b11110101 TCNT0
#2045
b11110110 TCNT0
#2053
b11110111 TCNT0
#2061
b11111000 TCNT0
#2069
b11111001 TCNT0
#2077
b11111010 TCNT0
#2085
b11111011 TCNT0
#2093
b11111100 TCNT0
#2101
b11111101 TCNT0
#2109
b11111110 TCNT0
#2117
b11111111 TCNT0
#2125
b00000000 TCNT0
b1 TIFR0
#2126
b0 TIFR0
#2133
b00000001 TCNT0
#2141
b00000010 TCNT0
#2149
b00000011 TCNT0
#2157
b00000100 TCNT0
#2165
b00000101 TCNT0
#2173
b00000110 TCNT0
#2181
b00000111 TCNT0
#2189
b00001000 TCNT0
#2197
b00001001 TCNT0
#2205
b00001010 TCNT0
#2213
b00001011 TCNT0
#2221
b00001100 TCNT0
#2229
b00001101 TCNT0
#2237
b00001110 TCNT0
#2245
b00001111 TCNT0
#2253
b00010000 TCNT0
#2261
b00010001 TCNT0
#2269
b00010010 TCNT0
#2277
b00010011 TCNT0
#2285
b00010100 TCNT0
#2293
b00010101 TCNT0
#2301
b00010110 TCNT0
#2309
b00010111 TCNT0
#2317
b00011000 TCNT0
#2325
b00011001 TCNT0
#2333
b00011010 TCNT0
#2341
b00011011 TCNT0
#2349
b00011100 TCNT0
#2357
b00011101 TCNT0
#2365
b00011110 TCNT0
#2373
b00011111 TCNT0
#2381
b00100000 TCNT0
#2389
b00100001 TCNT0
#2397
b00100010 TCNT0
#2405
b00100011 TCNT0
#2413
b00100100 TCNT0
#2421
b00100101 TCNT0
#2429
b00100110 TCNT0
#2437
b00100111 TCNT0
#2445
b00101000 TCNT0
#2453
b00101001 TCNT0
#2461
b00101010 TCNT0
#2469
b00101011 TCNT0
#2477
b00101100 TCNT0
#2485
b00101101 TCNT0
#2493
b00101110 TCNT0
#2501
b00101111 TCNT0
#2509
b00110000 TCNT0
#2517
b00110001 TCNT0
#2525
b00110010 TCNT0
#2533
b00110011 TCNT0
#2541
b00110100 TCNT0
#2549
b00110101 TCNT0
#2557
b00110110 TCNT0
#2565
b00110111 TCNT0
#2573
b00111000 TCNT0
#2581
b00111001 TCNT0
#2589
b00111010 TCNT0
#2597
b00111011 TCNT0
#2605
b00111100 TCNT0
#2613
b00111101 TCNT0
#2621
b00111110 TCNT0
#2629
b00111111 TCNT0
#2637
b01000000 TCNT0
#2645
b01000001 TCNT0
#2653
b01000010 TCNT0
#2661
b01000011 TCNT0
#2669
b01000100 TCNT0
#2677
b01000101 TCNT0
#2685
b01000110 TCNT0
#2693
b01000111 TCNT0
#2701
b01001000 TCNT0
#2709
b01001001 TCNT0
#2717
b01001010 TCNT0
#2725
b01001011 TCNT0
#2733
b01001100 TCNT0
#2741
b01001101 TCNT0
#2749
b01001110 TCNT0
#2757
b01001111 TCNT0
#2765
b01010000 TCNT0
#2773
b01010001 TCNT0
#2781
b01010010 TCNT0
#2789
b01010011 TCNT0
#2797
b01010100 TCNT0
#2805
b01010101 TCNT0
#2813
b01010110 TCNT0
#2821
b01010111 TCNT0
#2829
b01011000 TCNT0
#2837
b01011001 TCNT0
#2845
b01011010 TCNT0
#2853
b01011011 TCNT0
#2861
b01011100 TCNT0
#2869
b01011101 TCNT0
#2877
b01011110 TCNT0
#2885
b01011111 TCNT0
#2893
b01100000 TCNT0
#2901
b01100001 TCNT0
#2909
b01100010 TCNT0
#2917
b01100011 TCNT0
#2925
b01100100 TCNT0
#2933
b01100101 TCNT0
#2941
b01100110 TCNT0
#2949
b01100111 TCNT0
#2957
b01101000 TCNT0
#2965
b01101001 TCNT0
#2973
b01101010 TCNT0
#2981
b01101011 TCNT0
#2989
b01101100 TCNT0
#2997
b01101101 TCNT0
#3005
b01101110 TCNT0
#3013
b01101111 TCNT0
#3021
b01110000 TCNT0
#3029
b01110001 TCNT0
#3037
b01110010 TCNT0
#3045
b01110011 TCNT0
#3053
b01110100 TCNT0
#3061
b01110101 TCNT0
#3069
b01110110 TCNT0
#3077
b01110111 TCNT0
#3085
b01111000 TCNT0
#3093
b01111001 TCNT0
#3101
b01111010 TCNT0
#3109
b01111011 TCNT0
#3117
b01111100 TCNT0
#3125
b01111101 TCNT0
#3133
b01111110 TCNT0
#3141
b01111111 TCNT0
#3149
b10000000 TCNT0
#3157
b10000001 TCNT0
#3165
b10000010 TCNT0
#3173
b10000011 TCNT0
#3181
b10000100 TCNT0
#3189
b10000101 TCNT0
#3197
b10000110 TCNT0
#3205
b10000111 TCNT0
#3213
b10001000 TCNT0
#3221
b10001001 TCNT0
#3229
b10001010 TCNT0
#3237
b10001011 TCNT0
#3245
b10001100 TCNT0
#3253
b10001101 TCNT0
#3261
b10001110 TCNT0
#3269
b10001111 TCNT0
#3277
b10010000 TCNT0
#3285
b10010001 TCNT0
#3293
b10010010 TCNT0
#3301
b10010011 TCNT0
#3309
b10010100 TCNT0
#3317
b10010101 TCNT0
#3325
b10010110 TCNT0
#3333
b10010111 TCNT0
#3341
b10011000 TCNT0
#3349
b10011001 TCNT0
#3357
b10011010 TCNT0
#3365
b10011011 TCNT0
#3373
b10011100 TCNT0
#3381
b10011101 TCNT0
#3389
b10011110 TCNT0
#3397
b10011111 TCNT0
#3405
b10100000 TCNT0
#3413
b10100001 TCNT0
#3421
b10100010 TCNT0
#3429
b10100011 TCNT0
#3437
b10100100 TCNT0
#3445
b10100101 TCNT0
#3453
b10100110 TCNT0
#3461
b10100111 TCNT0
#3469
b10101000 TCNT0
#3477
b10101001 TCNT0
#3485
b10101010 TCNT0
#3493
b10101011 TCNT0
#3501
b10101100 TCNT0
#3509
b10101101 TCNT0
#3517
b10101110 TCNT0
#3525
b10101111 TCNT0
#3533
b10110000 TCNT0
#3541
b10110001 TCNT0
#3549
b10110010 TCNT0
#3557
b10110011 TCNT0
#3565
b10110100 TCNT0
#3573
b10110101 TCNT0
#3581
b10110110 TCNT0
#3589
b10110111 TCNT0
#3597
b10111000 TCNT0
#3605
b10111001 TCNT0
#3613
b10111010 TCNT0
#3621
b10111011 TCNT0
#3629
b10111100 TCNT0
#3637
b10111101 TCNT0
#3645
b10111110 TCNT0
#3653
b10111111 TCNT0
#3661
b11000000 TCNT0
#3669
b11000001 TCNT0
#3677
b11000010 TCNT0
#3685
b11000011 TCNT0
#3693
b11000100 TCNT0
#3701
b11000101 TCNT0
#3709
b11000110 TCNT0
#3717
b11000111 TCNT0
#3725
b11001000 TCNT0
#3733
b11001001 TCNT0
#3741
b11001010 TCNT0
#3749
b11001011 TCNT0
#3757
b11001100 TCNT0
#3765
b11001101 TCNT0
#3773
b11001110 TCNT0
#3781
b11001111 TCNT0
#3789
b11010000 TCNT0
#3797
b11010001 TCNT0
#3805
b11010010 TCNT0
#3813
b11010011 TCNT0
#3821
b11010100 TCNT0
#3829
b11010101 TCNT0
#3837
b11010110 TCNT0
#3845
b11010111 TCNT0
#3853
b11011000 TCNT0
#3861
b11011001 TCNT0
#3869
b11011010 TCNT0
#3877
b11011011 TCNT0
#3885
b11011100 TCNT0
#3893
b11011101 TCNT0
#3901
b11011110 TCNT0
#3909
b11011111 TCNT0
#3917
b11100000 TCNT0
#3925
b11100001 TCNT0
#3933
b11100010 TCNT0
#3941
b11100011 TCNT0
#3949
b11100100 TCNT0
#3957
b11100101 TCNT0
#3965
b11100110 TCNT0
#3973
b11100111 TCNT0
#3981
b11101000 TCNT0
#3989
b11101001 TCNT0
#3997
b11101010 TCNT0
#4005
b11101011 TCNT0
#4013
b11101100 TCNT0
#4021
b11101101 TCNT0
#4029
b11101110 TCNT0
#4037
b11101111 TCNT0
#4045
b11110000 TCNT0
#4053
b11110001 TCNT0
#4061
b11110010 TCNT0
#4069
b11110011 TCNT0
#4077
b11110100 TCNT0
#4085
b11110101 TCNT0
#4093
b11110110 TCNT0
#4101
b11110111 TCNT0
#4109
b11111000 TCNT0
#4117
b11111001 TCNT0
#4125
b11111010 TCNT0
#4133
b11111011 TCNT0
#4141
b11111100 TCNT0
#4149
b11111101 TCNT0
#4157
b11111110 TCNT0
#4165
b11111111 TCNT0
#4173
b00000000 TCNT0
b1 TIFR0
#4174
b0 TIFR0
#4181
b00000001 TCNT0
#4189
b00000010 TCNT0
#4197
b00000011 TCNT0
#4205
b00000100 TCNT0
#4213
b00000101 TCNT0
#4221
b00000110 TCNT0
#4229
b00000111 TCNT0
#4237
b00001000 TCNT0
#4245
b00001001 TCNT0
#4253
b00001010 TCNT0
#4261
b00001011 TCNT0
#4269
b00001100 TCNT0
#4277
b00001101 TCNT0
#4285
b00001110 TCNT0
#4293
b00001111 TCNT0
#4301
b00010000 TCNT0
#4309
b00010001 TCNT0
#4317
b00010010 TCNT0
#4325
b00010011 TCNT0
#4333
b00010100 TCNT0
#4341
b00010101 TCNT0
#4349
b00010110 TCNT0
#4357
b00010111 TCNT0
#4365
b00011000 TCNT0
#4373
b00011001 TCNT0
#4381
b00011010 TCNT0
#4389
b00011011 TCNT0
#4397
b00011100 TCNT0
#4405
b00011101 TCNT0
#4413
b00011110 TCNT0
#4421
b00011111 TCNT0
#4429
b00100000 TCNT0
#4437
b00100001 TCNT0
#4445
b00100010 TCNT0
#4453
b00100011 TCNT0
#4461
b00100100 TCNT0
#4469
b00100101 TCNT0
#4477
b00100110 TCNT0
#4485
b00100111 TCNT0
#4493
b00101000 TCNT0
#4501
b00101001 TCNT0
#4509
b00101010 TCNT0
#4517
b00101011 TCNT0
#4525
b00101100 TCNT0
#4533
b00101101 TCNT0
#4541
b00101110 TCNT0
#4549
b00101111 TCNT0
#4557
b00110000 TCNT0
#4565
b00110001 TCNT0
#4573
b00110010 TCNT0
#4581
b00110011 TCNT0
#4589
b00110100 TCNT0
#4597
b00110101 TCNT0
#4605
b00110110 TCNT0
#4613
b00110111 TCNT0
#4621
b00111000 TCNT0
#4629
b00111001 TCNT0
#4637
b00111010 TCNT0
#4645
b00111011 TCNT0
#4653
b00111100 TCNT0
#4661
b00111101 TCNT0
#4669
b00111110 TCNT0
#4677
b00111111 TCNT0
#4685
b01000000 TCNT0
